%YAML 1.1
%TAG !u! tag:unity3d.com,2011:
--- !u!114 &11400000
MonoBehaviour:
  m_ObjectHideFlags: 0
  m_CorrespondingSourceObject: {fileID: 0}
  m_PrefabInstance: {fileID: 0}
  m_PrefabAsset: {fileID: 0}
  m_GameObject: {fileID: 0}
  m_Enabled: 1
  m_EditorHideFlags: 0
  m_Script: {fileID: 11500000, guid: a170b18a2d82f8e47939949f8066cd19, type: 3}
  m_Name: RandomNumberGeneratorController
  m_EditorClassIdentifier: 
  StartGeneration:
    _Event: {fileID: 0}
  HideNumberInLetters:
    _Event: {fileID: 0}
  SendRandomNumberToDialogue: {fileID: 0}
  ShowNumberSelections:
    _Event: {fileID: 0}
  OnSelectedView:
    _Event: {fileID: 0}
  OnRightAttempt: {fileID: 0}
  OnWrongAttempt: {fileID: 0}
  OnReStartRound: {fileID: 0}
  _generatorModel: {fileID: 0}
  _viewsRegistered: {fileID: 0}
  _numberToLetterConverter: {fileID: 0}
  _NumerInLetterView: {fileID: 0}
  _viewsIds: []
