%YAML 1.1
%TAG !u! tag:unity3d.com,2011:
--- !u!114 &11400000
MonoBehaviour:
  m_ObjectHideFlags: 0
  m_CorrespondingSourceObject: {fileID: 0}
  m_PrefabInstance: {fileID: 0}
  m_PrefabAsset: {fileID: 0}
  m_GameObject: {fileID: 0}
  m_Enabled: 1
  m_EditorHideFlags: 0
  m_Script: {fileID: 11500000, guid: 9695335d1461c42a490a0c141548b8ed, type: 3}
  m_Name: Show UI Component Request evt
  m_EditorClassIdentifier: 
  _description: 
  showDebugLogs: 0
  arg0: {fileID: 0}
